{
    "results": {
        "facets": {},
        "tags": {
            "zona_personalizada": {
                "alias": "zona",
                "body": [{
                    "key": "Zona Personalizada",
                    "name": "Zona Personalizada"
                }]
            }
        }
    },
    "points": [{
        "id": "0",
        "size": 19,
        "type": "cluster",
        "longitude": "-77.03878558414783",
        "latitude": "-12.055953697218976",
        "publicationType": 0
    }, {
        "id": "0",
        "size": 4,
        "type": "cluster",
        "longitude": "-77.02677522556343",
        "latitude": "-12.049852335261255",
        "publicationType": 0
    }, {
        "id": "0",
        "size": 5,
        "type": "cluster",
        "longitude": "-77.02807494301636",
        "latitude": "-12.039584913742003",
        "publicationType": 0
    }, {
        "id": "0",
        "size": 13,
        "type": "cluster",
        "longitude": "-77.03441430538135",
        "latitude": "-12.05139487478657",
        "publicationType": 0
    }, {
        "id": "0",
        "size": 8,
        "type": "cluster",
        "longitude": "-77.04276260188202",
        "latitude": "-12.054202374688437",
        "publicationType": 0
    }, {
        "id": "0",
        "size": 5,
        "type": "cluster",
        "longitude": "-77.03029295642176",
        "latitude": "-12.051259052151336",
        "publicationType": 0
    }, {
        "id": "0",
        "size": 5,
        "type": "cluster",
        "longitude": "-77.03833104750093",
        "latitude": "-12.041746161947902",
        "publicationType": 0
    }, {
        "id": "0",
        "size": 5,
        "type": "cluster",
        "longitude": "-77.03921228181304",
        "latitude": "-12.052216738074613",
        "publicationType": 0
    }, {
        "id": "0",
        "size": 9,
        "type": "cluster",
        "longitude": "-77.04279076289406",
        "latitude": "-12.058954803080624",
        "publicationType": 0
    }, {
        "id": "0",
        "size": 4,
        "type": "cluster",
        "longitude": "-77.01875484663005",
        "latitude": "-12.052075928795624",
        "publicationType": 0
    }, {
        "id": "0",
        "size": 13,
        "type": "cluster",
        "longitude": "-77.04239616751056",
        "latitude": "-12.049083573471773",
        "publicationType": 0
    }, {
        "id": "0",
        "size": 5,
        "type": "cluster",
        "longitude": "-77.02501225606512",
        "latitude": "-12.046171739049319",
        "publicationType": 0
    }, {
        "id": "0",
        "size": 5,
        "type": "cluster",
        "longitude": "-77.04467402820936",
        "latitude": "-12.05663497499335",
        "publicationType": 0
    }, {
        "id": "0",
        "size": 4,
        "type": "cluster",
        "longitude": "-77.032972375",
        "latitude": "-12.039662575",
        "publicationType": 0
    }, {
        "id": "0",
        "size": 8,
        "type": "cluster",
        "longitude": "-77.02540131173356",
        "latitude": "-12.05815375044192",
        "publicationType": 0
    }, {
        "id": "0",
        "size": 6,
        "type": "cluster",
        "longitude": "-77.03383342676052",
        "latitude": "-12.047728929985146",
        "publicationType": 0
    }, {
        "id": "0",
        "size": 15,
        "type": "cluster",
        "longitude": "-77.03044027501498",
        "latitude": "-12.046482147994176",
        "publicationType": 0
    }, {
        "id": "0",
        "size": 12,
        "type": "cluster",
        "longitude": "-77.03589556459637",
        "latitude": "-12.054407673286955",
        "publicationType": 0
    }, {
        "id": "0",
        "size": 6,
        "type": "cluster",
        "longitude": "-77.03544598593535",
        "latitude": "-12.05768941050262",
        "publicationType": 0
    }, {
        "id": "0",
        "size": 28,
        "type": "cluster",
        "longitude": "-77.04303555564401",
        "latitude": "-12.046469810495504",
        "publicationType": 0
    }, {
        "id": "0",
        "size": 12,
        "type": "cluster",
        "longitude": "-77.04460314860621",
        "latitude": "-12.051669647772735",
        "publicationType": 0
    }, {
        "id": "0",
        "size": 7,
        "type": "cluster",
        "longitude": "-77.0247018780943",
        "latitude": "-12.05127488820557",
        "publicationType": 0
    }, {
        "id": "0",
        "size": 13,
        "type": "cluster",
        "longitude": "-77.03681083780988",
        "latitude": "-12.04631207197383",
        "publicationType": 0
    }, {
        "id": "0",
        "size": 2,
        "type": "cluster",
        "longitude": "-77.020060214732",
        "latitude": "-12.0450271991655",
        "publicationType": 0
    }, {
        "id": "0",
        "size": 14,
        "type": "cluster",
        "longitude": "-77.03433947708704",
        "latitude": "-12.043906457190117",
        "publicationType": 0
    }, {
        "id": "0",
        "size": 9,
        "type": "cluster",
        "longitude": "-77.03377602316326",
        "latitude": "-12.053711851578639",
        "publicationType": 0
    }, {
        "id": "0",
        "size": 3,
        "type": "cluster",
        "longitude": "-77.02253293771643",
        "latitude": "-12.047984390591546",
        "publicationType": 0
    }, {
        "id": "0",
        "size": 4,
        "type": "cluster",
        "longitude": "-77.04468373435994",
        "latitude": "-12.04464416851095",
        "publicationType": 0
    }, {
        "id": "0",
        "size": 2,
        "type": "cluster",
        "longitude": "-77.0424423",
        "latitude": "-12.03596385",
        "publicationType": 0
    }, {
        "id": "0",
        "size": 4,
        "type": "cluster",
        "longitude": "-77.02437937598643",
        "latitude": "-12.037777852242925",
        "publicationType": 0
    }, {
        "id": "0",
        "size": 6,
        "type": "cluster",
        "longitude": "-77.02057863423704",
        "latitude": "-12.057294272483864",
        "publicationType": 0
    }, {
        "id": "0",
        "size": 10,
        "type": "cluster",
        "longitude": "-77.02873648029313",
        "latitude": "-12.054922888088115",
        "publicationType": 0
    }, {
        "id": "0",
        "size": 4,
        "type": "cluster",
        "longitude": "-77.03122842738689",
        "latitude": "-12.059158045258872",
        "publicationType": 0
    }, {
        "id": "0",
        "size": 6,
        "type": "cluster",
        "longitude": "-77.03649186625829",
        "latitude": "-12.036659171929971",
        "publicationType": 0
    }, {
        "id": "0",
        "size": 4,
        "type": "cluster",
        "longitude": "-77.03894575041244",
        "latitude": "-12.0589851671096",
        "publicationType": 0
    }]
}
